NF_MPI-master/fifo/testbench.vcd
$date
    Wed Sep 26 22:11:49 2012
$end
$version
    MyHDL 0.7
$end
$timescale
    1ns
$end

$scope module testbench $end
$var reg 1 ! reset $end
$var reg 1 " nearly_full $end
$var reg 1 # full $end
$var reg 72 $ dout $end
$var reg 1 % clk $end
$var reg 1 & wr_en $end
$var reg 72 ' din $end
$var reg 1 ( rd_en $end
$var reg 1 ) empty $end
$scope module up $end
$var reg 1 ! reset $end
$var reg 1 " nearly_full $end
$var reg 1 # full $end
$var reg 72 $ dout $end
$var reg 1 % clk $end
$var reg 1 & wr_en $end
$var reg 72 ' din $end
$var reg 1 ( rd_en $end
$var reg 1 ) empty $end
$upscope $end
$upscope $end

$enddefinitions $end
$dumpvars
1!
0"
0#
b000000000000000000000000000000000000000000000000000000000000000000000000 $
0%
1&
b000000000000000000000000000000000000000000000000000000000000000000000000 '
0(
0)
$end
#10
1%
1)
#11
#20
0%
0!
1(
0&
b000000000000000000001000111111111111111111111111111111111111111111111111 '
#30
1%
1"
0)
#31
#40
0%
0(
1&
b000000000000000100000000000001100000100011101110000010111110011100100111 '
#50
1%
0"
1)
#51
#60
0%
1(
0&
b000000000000000000001000000000010000000000000100000001100000000000001000 '
#70
1%
1"
0)
#71
#80
0%
0(
1&
b000000000000001000111000101010001100000011101110000010111110011100100111 '
#90
1%
0"
1)
#91
#100
0%
1(
0&
b000000001010100011000000000000000000000000000000000000000000000000000000 '
#110
1%
1"
0)
#111
#120
0%
0(
1&
b000000000000000000000000000000000000000000000000000000000000000100111000 '
#130
1%
0"
1)
#131
#140
0%
1!
#150
1%
b000000000000000000000000000000000000000000000000000000000000000100111000 $
#151
#160
0%
0!
1(
0&
b000000000000000000001000111111111111111111111111111111111111111111111111 '
#170
1%
b000000000000001000111000101010001100000011101110000010111110011100100111 $
1"
0)
#171
#180
0%
0(
1&
b000000000000000100000000000001100000100011101110000010111110011100100111 '
#190
1%
0"
1)
#191
#200
0%
1(
0&
b000000000000000000001000000000010000000000000100000001100000000000001000 '
#210
1%
b000000000000000000000000000000000000000000000000000000000000000100111000 $
1"
0)
#211
#220
0%
0(
1&
b000000000000001000111000101010001100000011101110000010111110011100100111 '
#230
1%
0"
1)
#231
#240
0%
1(
0&
b000000001010100011000000000000000000000000000000000000000000000000000000 '
#250
1%
1"
0)
#251
#260
0%
0(
1&
b000000000000000000000000000000000000000000000000000000000000000100111000 '
#270
1%
0"
1)
#271
#280
0%
1!
